^C:\USERS\TIKOL\ONEDRIVE\DOCUMENTS\C++\TRIGONOMÉTRIE\TRIGONOMÉTRIE\TRIGONOMÉTRIE\DEBUG\SOURCE.OBJ
C:\USERS\TIKOL\ONEDRIVE\DOCUMENTS\C++\TRIGONOMéTRIE\TRIGONOMéTRIE\DEBUG\TRIGONOMéTRIE.ILK
C:\USERS\TIKOL\ONEDRIVE\DOCUMENTS\C++\TRIGONOMéTRIE\TRIGONOMéTRIE\DEBUG\TRIGONOMéTRIE.EXE
C:\USERS\TIKOL\ONEDRIVE\DOCUMENTS\C++\TRIGONOMÉTRIE\TRIGONOMÉTRIE\DEBUG\TRIGONOMÉTRIE.PDB
