^C:\USERS\TIKOL\ONEDRIVE\DOCUMENTS\C++\TP CHAINES ET POINTEURS\TP CHAINES ET POINTEURS\DEBUG\EX1.OBJ|C:\USERS\TIKOL\ONEDRIVE\DOCUMENTS\C++\TP CHAINES ET POINTEURS\TP CHAINES ET POINTEURS\DEBUG\EX2.OBJ|C:\USERS\TIKOL\ONEDRIVE\DOCUMENTS\C++\TP CHAINES ET POINTEURS\TP CHAINES ET POINTEURS\DEBUG\EX4.OBJ|C:\USERS\TIKOL\ONEDRIVE\DOCUMENTS\C++\TP CHAINES ET POINTEURS\TP CHAINES ET POINTEURS\DEBUG\EXE3.OBJ
C:\USERS\TIKOL\ONEDRIVE\DOCUMENTS\C++\TP CHAINES ET POINTEURS\DEBUG\TP CHAINES ET POINTEURS.ILK
C:\USERS\TIKOL\ONEDRIVE\DOCUMENTS\C++\TP CHAINES ET POINTEURS\DEBUG\TP CHAINES ET POINTEURS.EXE
C:\USERS\TIKOL\ONEDRIVE\DOCUMENTS\C++\TP CHAINES ET POINTEURS\DEBUG\TP CHAINES ET POINTEURS.PDB
