^C:\USERS\TIKOL\ONEDRIVE\DOCUMENTS\C++\TRI PAR INSERTION GUIMAEV\TRI PAR INSERTION GUIMAEV\DEBUG\SOURCE.OBJ
C:\USERS\TIKOL\ONEDRIVE\DOCUMENTS\C++\TRI PAR INSERTION GUIMAEV\DEBUG\TRI PAR INSERTION GUIMAEV.ILK
C:\USERS\TIKOL\ONEDRIVE\DOCUMENTS\C++\TRI PAR INSERTION GUIMAEV\DEBUG\TRI PAR INSERTION GUIMAEV.EXE
C:\USERS\TIKOL\ONEDRIVE\DOCUMENTS\C++\TRI PAR INSERTION GUIMAEV\DEBUG\TRI PAR INSERTION GUIMAEV.PDB
